\relax 
\providecommand\hyper@newdestlabel[2]{}
\providecommand\HyperFirstAtBeginDocument{\AtBeginDocument}
\HyperFirstAtBeginDocument{\ifx\hyper@anchor\@undefined
\global\let\oldcontentsline\contentsline
\gdef\contentsline#1#2#3#4{\oldcontentsline{#1}{#2}{#3}}
\global\let\oldnewlabel\newlabel
\gdef\newlabel#1#2{\newlabelxx{#1}#2}
\gdef\newlabelxx#1#2#3#4#5#6{\oldnewlabel{#1}{{#2}{#3}}}
\AtEndDocument{\ifx\hyper@anchor\@undefined
\let\contentsline\oldcontentsline
\let\newlabel\oldnewlabel
\fi}
\fi}
\global\let\hyper@last\relax 
\gdef\HyperFirstAtBeginDocument#1{#1}
\providecommand\HyField@AuxAddToFields[1]{}
\providecommand\HyField@AuxAddToCoFields[2]{}
\@writefile{toc}{\contentsline {section}{\numberline {1}Initial setup. Loading packages and data.}{2}{section.1}\protected@file@percent }
\newlabel{initial-setup.-loading-packages-and-data.}{{1}{2}{Initial setup. Loading packages and data}{section.1}{}}
\@writefile{toc}{\contentsline {subsection}{\numberline {1.1}Loading data}{3}{subsection.1.1}\protected@file@percent }
\newlabel{loading-data}{{1.1}{3}{Loading data}{subsection.1.1}{}}
\@writefile{toc}{\contentsline {subsection}{\numberline {1.2}Distribution of queries}{4}{subsection.1.2}\protected@file@percent }
\newlabel{distribution-of-queries}{{1.2}{4}{Distribution of queries}{subsection.1.2}{}}
\@writefile{toc}{\contentsline {subsection}{\numberline {1.3}Filtering country and creating new columns for ID and Month.}{6}{subsection.1.3}\protected@file@percent }
\newlabel{filtering-country-and-creating-new-columns-for-id-and-month.}{{1.3}{6}{Filtering country and creating new columns for ID and Month}{subsection.1.3}{}}
\@writefile{toc}{\contentsline {section}{\numberline {2}Data for manual coding}{7}{section.2}\protected@file@percent }
\newlabel{data-for-manual-coding}{{2}{7}{Data for manual coding}{section.2}{}}
\@writefile{toc}{\contentsline {subsection}{\numberline {2.1}Create keyword index, create misinfo variable and sample data for manual coding.}{7}{subsection.2.1}\protected@file@percent }
\newlabel{create-keyword-index-create-misinfo-variable-and-sample-data-for-manual-coding.}{{2.1}{7}{Create keyword index, create misinfo variable and sample data for manual coding}{subsection.2.1}{}}
\@writefile{toc}{\contentsline {subsubsection}{\numberline {2.1.1}Keywords}{7}{subsubsection.2.1.1}\protected@file@percent }
\newlabel{keywords}{{2.1.1}{7}{Keywords}{subsubsection.2.1.1}{}}
\@writefile{toc}{\contentsline {subsubsection}{\numberline {2.1.2}Sample for manual coding}{8}{subsubsection.2.1.2}\protected@file@percent }
\newlabel{sample-for-manual-coding}{{2.1.2}{8}{Sample for manual coding}{subsubsection.2.1.2}{}}
\@writefile{toc}{\contentsline {subsubsection}{\numberline {2.1.3}Count the results of the individual coders.}{9}{subsubsection.2.1.3}\protected@file@percent }
\newlabel{count-the-results-of-the-individual-coders.}{{2.1.3}{9}{Count the results of the individual coders}{subsubsection.2.1.3}{}}
\@writefile{toc}{\contentsline {subsubsection}{\numberline {2.1.4}Inter-rater reliability using Cohen's Kappa.}{9}{subsubsection.2.1.4}\protected@file@percent }
\newlabel{inter-rater-reliability-using-cohens-kappa.}{{2.1.4}{9}{Inter-rater reliability using Cohen's Kappa}{subsubsection.2.1.4}{}}
\@writefile{toc}{\contentsline {subsubsection}{\numberline {2.1.5}Visualizing queries coded differently}{10}{subsubsection.2.1.5}\protected@file@percent }
\newlabel{visualizing-queries-coded-differently}{{2.1.5}{10}{Visualizing queries coded differently}{subsubsection.2.1.5}{}}
\@writefile{toc}{\contentsline {section}{\numberline {3}Automatic text classification}{11}{section.3}\protected@file@percent }
\newlabel{automatic-text-classification}{{3}{11}{Automatic text classification}{section.3}{}}
\@writefile{toc}{\contentsline {subsection}{\numberline {3.1}Renaming some variables/Fixing data types}{11}{subsection.3.1}\protected@file@percent }
\newlabel{renaming-some-variablesfixing-data-types}{{3.1}{11}{Renaming some variables/Fixing data types}{subsection.3.1}{}}
\@writefile{toc}{\contentsline {subsection}{\numberline {3.2}Create training/test split.}{11}{subsection.3.2}\protected@file@percent }
\newlabel{create-trainingtest-split.}{{3.2}{11}{Create training/test split}{subsection.3.2}{}}
\@writefile{toc}{\contentsline {subsection}{\numberline {3.3}Recipe}{11}{subsection.3.3}\protected@file@percent }
\newlabel{recipe}{{3.3}{11}{Recipe}{subsection.3.3}{}}
\@writefile{toc}{\contentsline {subsection}{\numberline {3.4}Model specifications}{12}{subsection.3.4}\protected@file@percent }
\newlabel{model-specifications}{{3.4}{12}{Model specifications}{subsection.3.4}{}}
\@writefile{toc}{\contentsline {subsection}{\numberline {3.5}Parameter tuning grids}{13}{subsection.3.5}\protected@file@percent }
\newlabel{parameter-tuning-grids}{{3.5}{13}{Parameter tuning grids}{subsection.3.5}{}}
\@writefile{toc}{\contentsline {subsection}{\numberline {3.6}Workflows}{13}{subsection.3.6}\protected@file@percent }
\newlabel{workflows}{{3.6}{13}{Workflows}{subsection.3.6}{}}
\@writefile{toc}{\contentsline {subsection}{\numberline {3.7}Training models}{14}{subsection.3.7}\protected@file@percent }
\newlabel{training-models}{{3.7}{14}{Training models}{subsection.3.7}{}}
\@writefile{toc}{\contentsline {subsection}{\numberline {3.8}Comparing cross-validated roc-auc}{14}{subsection.3.8}\protected@file@percent }
\newlabel{comparing-cross-validated-roc-auc}{{3.8}{14}{Comparing cross-validated roc-auc}{subsection.3.8}{}}
\@writefile{toc}{\contentsline {subsubsection}{\numberline {3.8.1}Autoplots from yardsticks.}{16}{subsubsection.3.8.1}\protected@file@percent }
\newlabel{autoplots-from-yardsticks.}{{3.8.1}{16}{Autoplots from yardsticks}{subsubsection.3.8.1}{}}
\@writefile{toc}{\contentsline {subsubsection}{\numberline {3.8.2}Tables}{17}{subsubsection.3.8.2}\protected@file@percent }
\newlabel{tables}{{3.8.2}{17}{Tables}{subsubsection.3.8.2}{}}
\@writefile{lot}{\contentsline {table}{\numberline {1}{\ignorespaces Top 5 glm by ROC AUC}}{18}{table.1}\protected@file@percent }
\newlabel{tab:unnamed-chunk-39}{{1}{18}{Top 5 glm by ROC AUC}{table.1}{}}
\@writefile{lot}{\contentsline {table}{\numberline {2}{\ignorespaces Top 5 random forest by ROC AUC}}{18}{table.2}\protected@file@percent }
\newlabel{tab:unnamed-chunk-39}{{2}{18}{Top 5 random forest by ROC AUC}{table.2}{}}
\@writefile{toc}{\contentsline {subsection}{\numberline {3.9}Final model}{18}{subsection.3.9}\protected@file@percent }
\newlabel{final-model}{{3.9}{18}{Final model}{subsection.3.9}{}}
\@writefile{lot}{\contentsline {table}{\numberline {3}{\ignorespaces Top 5 XGBoost by ROC AUC}}{18}{table.3}\protected@file@percent }
\newlabel{tab:unnamed-chunk-39}{{3}{18}{Top 5 XGBoost by ROC AUC}{table.3}{}}
\@writefile{lot}{\contentsline {table}{\numberline {4}{\ignorespaces Top 5 SVM by ROC AUC}}{19}{table.4}\protected@file@percent }
\newlabel{tab:unnamed-chunk-39}{{4}{19}{Top 5 SVM by ROC AUC}{table.4}{}}
\@writefile{toc}{\contentsline {subsubsection}{\numberline {3.9.1}Final fit on test set}{19}{subsubsection.3.9.1}\protected@file@percent }
\newlabel{final-fit-on-test-set}{{3.9.1}{19}{Final fit on test set}{subsubsection.3.9.1}{}}
\@writefile{toc}{\contentsline {subsubsection}{\numberline {3.9.2}Metrics of final fit on test data}{19}{subsubsection.3.9.2}\protected@file@percent }
\newlabel{metrics-of-final-fit-on-test-data}{{3.9.2}{19}{Metrics of final fit on test data}{subsubsection.3.9.2}{}}
\@writefile{toc}{\contentsline {subsubsection}{\numberline {3.9.3}Roc-AUC comparison}{20}{subsubsection.3.9.3}\protected@file@percent }
\newlabel{roc-auc-comparison}{{3.9.3}{20}{Roc-AUC comparison}{subsubsection.3.9.3}{}}
\@writefile{toc}{\contentsline {subsubsection}{\numberline {3.9.4}Gain curves}{21}{subsubsection.3.9.4}\protected@file@percent }
\newlabel{gain-curves}{{3.9.4}{21}{Gain curves}{subsubsection.3.9.4}{}}
\@writefile{toc}{\contentsline {subsubsection}{\numberline {3.9.5}Variable Importance}{23}{subsubsection.3.9.5}\protected@file@percent }
\newlabel{variable-importance}{{3.9.5}{23}{Variable Importance}{subsubsection.3.9.5}{}}
\@writefile{toc}{\contentsline {subsubsection}{\numberline {3.9.6}Confusion matrices}{25}{subsubsection.3.9.6}\protected@file@percent }
\newlabel{confusion-matrices}{{3.9.6}{25}{Confusion matrices}{subsubsection.3.9.6}{}}
\@writefile{toc}{\contentsline {subsubsection}{\numberline {3.9.7}Predict the entire dataset}{25}{subsubsection.3.9.7}\protected@file@percent }
\newlabel{predict-the-entire-dataset}{{3.9.7}{25}{Predict the entire dataset}{subsubsection.3.9.7}{}}
\@writefile{toc}{\contentsline {subsubsection}{\numberline {3.9.8}Prediction probabilities}{25}{subsubsection.3.9.8}\protected@file@percent }
\newlabel{prediction-probabilities}{{3.9.8}{25}{Prediction probabilities}{subsubsection.3.9.8}{}}
\@writefile{toc}{\contentsline {section}{\numberline {4}Exploratory analysis}{26}{section.4}\protected@file@percent }
\newlabel{exploratory-analysis}{{4}{26}{Exploratory analysis}{section.4}{}}
\@writefile{toc}{\contentsline {subsection}{\numberline {4.1}Creating new dataset for visualization purposes}{26}{subsection.4.1}\protected@file@percent }
\newlabel{creating-new-dataset-for-visualization-purposes}{{4.1}{26}{Creating new dataset for visualization purposes}{subsection.4.1}{}}
\@writefile{toc}{\contentsline {subsubsection}{\numberline {4.1.1}Data from US census - Merge with previous}{26}{subsubsection.4.1.1}\protected@file@percent }
\newlabel{data-from-us-census---merge-with-previous}{{4.1.1}{26}{Data from US census - Merge with previous}{subsubsection.4.1.1}{}}
\@writefile{toc}{\contentsline {subsection}{\numberline {4.2}Overall distribution}{26}{subsection.4.2}\protected@file@percent }
\newlabel{overall-distribution}{{4.2}{26}{Overall distribution}{subsection.4.2}{}}
\@writefile{toc}{\contentsline {subsection}{\numberline {4.3}Distribution by Month}{27}{subsection.4.3}\protected@file@percent }
\newlabel{distribution-by-month}{{4.3}{27}{Distribution by Month}{subsection.4.3}{}}
\@writefile{toc}{\contentsline {subsection}{\numberline {4.4}Unique Queries by Month}{29}{subsection.4.4}\protected@file@percent }
\newlabel{unique-queries-by-month}{{4.4}{29}{Unique Queries by Month}{subsection.4.4}{}}
\@writefile{toc}{\contentsline {subsection}{\numberline {4.5}Relationship between info types}{31}{subsection.4.5}\protected@file@percent }
\newlabel{relationship-between-info-types}{{4.5}{31}{Relationship between info types}{subsection.4.5}{}}
\@writefile{toc}{\contentsline {subsection}{\numberline {4.6}State distributions}{32}{subsection.4.6}\protected@file@percent }
\newlabel{state-distributions}{{4.6}{32}{State distributions}{subsection.4.6}{}}
\@writefile{toc}{\contentsline {subsubsection}{\numberline {4.6.1}Scatterplots. Population v. total/misinfo queries.}{36}{subsubsection.4.6.1}\protected@file@percent }
\newlabel{scatterplots.-population-v.-totalmisinfo-queries.}{{4.6.1}{36}{Scatterplots. Population v. total/misinfo queries}{subsubsection.4.6.1}{}}
\@writefile{toc}{\contentsline {subsubsection}{\numberline {4.6.2}Maps}{38}{subsubsection.4.6.2}\protected@file@percent }
\newlabel{maps}{{4.6.2}{38}{Maps}{subsubsection.4.6.2}{}}
\@writefile{toc}{\contentsline {subsection}{\numberline {4.7}Query Analysis}{50}{subsection.4.7}\protected@file@percent }
\newlabel{query-analysis}{{4.7}{50}{Query Analysis}{subsection.4.7}{}}
\@writefile{toc}{\contentsline {subsubsection}{\numberline {4.7.1}Top Queries, All Months}{50}{subsubsection.4.7.1}\protected@file@percent }
\newlabel{top-queries-all-months}{{4.7.1}{50}{Top Queries, All Months}{subsubsection.4.7.1}{}}
\@writefile{toc}{\contentsline {subsubsection}{\numberline {4.7.2}Top 5 Line Plots}{51}{subsubsection.4.7.2}\protected@file@percent }
\newlabel{top-5-line-plots}{{4.7.2}{51}{Top 5 Line Plots}{subsubsection.4.7.2}{}}
\@writefile{toc}{\contentsline {subsubsection}{\numberline {4.7.3}Top Queries by Month (Count)}{53}{subsubsection.4.7.3}\protected@file@percent }
\newlabel{top-queries-by-month-count}{{4.7.3}{53}{Top Queries by Month (Count)}{subsubsection.4.7.3}{}}
\@writefile{toc}{\contentsline {subsubsection}{\numberline {4.7.4}Top Queries by Month (Popularity Score)}{55}{subsubsection.4.7.4}\protected@file@percent }
\newlabel{top-queries-by-month-popularity-score}{{4.7.4}{55}{Top Queries by Month (Popularity Score)}{subsubsection.4.7.4}{}}
\@writefile{toc}{\contentsline {subsubsection}{\numberline {4.7.5}Top Queries by Month (Weighted Log Odds)}{57}{subsubsection.4.7.5}\protected@file@percent }
\newlabel{top-queries-by-month-weighted-log-odds}{{4.7.5}{57}{Top Queries by Month (Weighted Log Odds)}{subsubsection.4.7.5}{}}
\@writefile{toc}{\contentsline {subsubsection}{\numberline {4.7.6}Network}{61}{subsubsection.4.7.6}\protected@file@percent }
\newlabel{network}{{4.7.6}{61}{Network}{subsubsection.4.7.6}{}}
\@writefile{toc}{\contentsline {subsection}{\numberline {4.8}CoronaNet Data}{63}{subsection.4.8}\protected@file@percent }
\newlabel{coronanet-data}{{4.8}{63}{CoronaNet Data}{subsection.4.8}{}}
\@writefile{toc}{\contentsline {subsubsection}{\numberline {4.8.1}Total Political Interventions}{63}{subsubsection.4.8.1}\protected@file@percent }
\newlabel{total-political-interventions}{{4.8.1}{63}{Total Political Interventions}{subsubsection.4.8.1}{}}
\@writefile{toc}{\contentsline {subsubsection}{\numberline {4.8.2}Type - Total days impacted}{65}{subsubsection.4.8.2}\protected@file@percent }
\newlabel{type---total-days-impacted}{{4.8.2}{65}{Type - Total days impacted}{subsubsection.4.8.2}{}}
\@writefile{toc}{\contentsline {subsubsection}{\numberline {4.8.3}All Types of Policies}{67}{subsubsection.4.8.3}\protected@file@percent }
\newlabel{all-types-of-policies}{{4.8.3}{67}{All Types of Policies}{subsubsection.4.8.3}{}}
\@writefile{toc}{\contentsline {subsection}{\numberline {4.9}Political Maps}{68}{subsection.4.9}\protected@file@percent }
\newlabel{political-maps}{{4.9}{68}{Political Maps}{subsection.4.9}{}}
\@writefile{toc}{\contentsline {subsubsection}{\numberline {4.9.1}Misinformation Alpha}{70}{subsubsection.4.9.1}\protected@file@percent }
\newlabel{misinformation-alpha}{{4.9.1}{70}{Misinformation Alpha}{subsubsection.4.9.1}{}}
\@writefile{toc}{\contentsline {subsubsection}{\numberline {4.9.2}Misinformation / Population}{70}{subsubsection.4.9.2}\protected@file@percent }
\newlabel{misinformation-population}{{4.9.2}{70}{Misinformation / Population}{subsubsection.4.9.2}{}}
\@writefile{toc}{\contentsline {subsection}{\numberline {4.10}Google Trends}{71}{subsection.4.10}\protected@file@percent }
\newlabel{google-trends}{{4.10}{71}{Google Trends}{subsection.4.10}{}}
\@writefile{toc}{\contentsline {subsubsection}{\numberline {4.10.1}Regular information line chart}{71}{subsubsection.4.10.1}\protected@file@percent }
\newlabel{regular-information-line-chart}{{4.10.1}{71}{Regular information line chart}{subsubsection.4.10.1}{}}
\@writefile{toc}{\contentsline {subsubsection}{\numberline {4.10.2}Misinformation line chart}{72}{subsubsection.4.10.2}\protected@file@percent }
\newlabel{misinformation-line-chart}{{4.10.2}{72}{Misinformation line chart}{subsubsection.4.10.2}{}}
\@writefile{toc}{\contentsline {subsubsection}{\numberline {4.10.3}Overall popularity}{73}{subsubsection.4.10.3}\protected@file@percent }
\newlabel{overall-popularity}{{4.10.3}{73}{Overall popularity}{subsubsection.4.10.3}{}}
\@writefile{toc}{\contentsline {subsubsection}{\numberline {4.10.4}Top 5 by state}{73}{subsubsection.4.10.4}\protected@file@percent }
\newlabel{top-5-by-state}{{4.10.4}{73}{Top 5 by state}{subsubsection.4.10.4}{}}
